{
  "openapi": "3.0.1",
  "info": {
    "title": "Bookstore Catalog API",
    "description": "An api for the bookstore catalog",
    "version": "v1"
  },
  "paths": {
    "/api/Books": {
      "get": {
        "tags": [
          "Books"
        ],
        "operationId": "GetAll",
        "responses": {
          "200": {
            "description": "Success",
            "content": {
              "application/json": {
                "schema": {
                  "type": "array",
                  "items": {
                    "$ref": "#/components/schemas/BookResponse"
                  }
                }
              }
            }
          }
        }
      },
      "post": {
        "tags": [
          "Books"
        ],
        "operationId": "Create",
        "requestBody": {
          "content": {
            "application/json": {
              "schema": {
                "$ref": "#/components/schemas/BookRequest"
              }
            }
          }
        },
        "responses": {
          "201": {
            "description": "Created",
            "content": {
              "application/json": {
                "schema": {
                  "$ref": "#/components/schemas/Book"
                }
              }
            }
          }
        }
      }
    },
    "/api/Books/{id}": {
      "get": {
        "tags": [
          "Books"
        ],
        "operationId": "GetById",
        "parameters": [
          {
            "name": "id",
            "in": "path",
            "required": true,
            "schema": {
              "type": "integer",
              "format": "int32"
            }
          }
        ],
        "responses": {
          "404": {
            "description": "Not Found",
            "content": {
              "application/json": {
                "schema": {
                  "$ref": "#/components/schemas/ProblemDetails"
                }
              }
            }
          }
        }
      }
    },
    "/api/Books/{bookID}": {
      "put": {
        "tags": [
          "Books"
        ],
        "operationId": "Update",
        "parameters": [
          {
            "name": "bookID",
            "in": "path",
            "required": true,
            "schema": {
              "type": "integer",
              "format": "int32"
            }
          }
        ],
        "requestBody": {
          "content": {
            "application/json-patch+json": {
              "schema": {
                "$ref": "#/components/schemas/BookRequest"
              }
            },
            "application/json": {
              "schema": {
                "$ref": "#/components/schemas/BookRequest"
              }
            },
            "text/json": {
              "schema": {
                "$ref": "#/components/schemas/BookRequest"
              }
            },
            "application/*+json": {
              "schema": {
                "$ref": "#/components/schemas/BookRequest"
              }
            }
          }
        },
        "responses": {
          "404": {
            "description": "Not Found",
            "content": {
              "application/json": {
                "schema": {
                  "$ref": "#/components/schemas/ProblemDetails"
                }
              }
            }
          }
        }
      }
    },
    "/api/Books/{bookId}": {
      "delete": {
        "tags": [
          "Books"
        ],
        "operationId": "Delete",
        "parameters": [
          {
            "name": "bookId",
            "in": "path",
            "required": true,
            "schema": {
              "type": "integer",
              "format": "int32"
            }
          }
        ],
        "responses": {
          "404": {
            "description": "Not Found",
            "content": {
              "application/json": {
                "schema": {
                  "$ref": "#/components/schemas/ProblemDetails"
                }
              }
            }
          }
        }
      },
      "patch": {
        "tags": [
          "Books"
        ],
        "operationId": "Update",
        "parameters": [
          {
            "name": "bookId",
            "in": "path",
            "required": true,
            "schema": {
              "type": "integer",
              "format": "int32"
            }
          }
        ],
        "requestBody": {
          "content": {
            "application/json-patch+json": {
              "schema": {
                "$ref": "#/components/schemas/BookRequestJsonPatchDocument"
              }
            }
          }
        },
        "responses": {
          "404": {
            "description": "Not Found",
            "content": {
              "application/json": {
                "schema": {
                  "$ref": "#/components/schemas/ProblemDetails"
                }
              }
            }
          }
        }
      }
    },
    "/WeatherForecast": {
      "get": {
        "tags": [
          "WeatherForecast"
        ],
        "responses": {
          "200": {
            "description": "Success",
            "content": {
              "text/plain": {
                "schema": {
                  "type": "array",
                  "items": {
                    "$ref": "#/components/schemas/WeatherForecast"
                  }
                }
              },
              "application/json": {
                "schema": {
                  "type": "array",
                  "items": {
                    "$ref": "#/components/schemas/WeatherForecast"
                  }
                }
              },
              "text/json": {
                "schema": {
                  "type": "array",
                  "items": {
                    "$ref": "#/components/schemas/WeatherForecast"
                  }
                }
              }
            }
          }
        }
      }
    }
  },
  "components": {
    "schemas": {
      "Author": {
        "type": "object",
        "properties": {
          "authorID": {
            "type": "integer",
            "format": "int32"
          },
          "firstName": {
            "type": "string",
            "nullable": true
          },
          "lastName": {
            "type": "string",
            "nullable": true
          },
          "about": {
            "type": "string",
            "nullable": true
          },
          "photo": {
            "type": "string",
            "format": "byte",
            "nullable": true
          },
          "birthYear": {
            "type": "string",
            "nullable": true
          },
          "nationality": {
            "type": "string",
            "nullable": true
          },
          "books": {
            "type": "array",
            "items": {
              "$ref": "#/components/schemas/BookAuthor"
            },
            "nullable": true
          },
          "createdOn": {
            "type": "string",
            "format": "date-time"
          },
          "modifiedOn": {
            "type": "string",
            "format": "date-time"
          }
        },
        "additionalProperties": false
      },
      "Book": {
        "type": "object",
        "properties": {
          "bookID": {
            "type": "integer",
            "format": "int32"
          },
          "isbn": {
            "type": "string",
            "nullable": true
          },
          "title": {
            "type": "string",
            "nullable": true
          },
          "description": {
            "type": "string",
            "nullable": true
          },
          "cover": {
            "type": "string",
            "format": "byte",
            "nullable": true
          },
          "year": {
            "type": "integer",
            "format": "int32"
          },
          "publisherID": {
            "type": "integer",
            "format": "int32"
          },
          "languageID": {
            "type": "integer",
            "format": "int32"
          },
          "price": {
            "type": "number",
            "format": "double"
          },
          "createdOn": {
            "type": "string",
            "format": "date-time"
          },
          "modifiedOn": {
            "type": "string",
            "format": "date-time"
          },
          "language": {
            "$ref": "#/components/schemas/Language"
          },
          "publisher": {
            "$ref": "#/components/schemas/Publisher"
          },
          "authors": {
            "type": "array",
            "items": {
              "$ref": "#/components/schemas/BookAuthor"
            },
            "nullable": true
          },
          "genres": {
            "type": "array",
            "items": {
              "$ref": "#/components/schemas/BookGenre"
            },
            "nullable": true
          },
          "author": {
            "$ref": "#/components/schemas/Author"
          }
        },
        "additionalProperties": false
      },
      "BookAuthor": {
        "type": "object",
        "properties": {
          "bookID": {
            "type": "integer",
            "format": "int32"
          },
          "authorID": {
            "type": "integer",
            "format": "int32"
          },
          "position": {
            "type": "integer",
            "format": "int32"
          },
          "book": {
            "$ref": "#/components/schemas/Book"
          },
          "author": {
            "$ref": "#/components/schemas/Author"
          }
        },
        "additionalProperties": false
      },
      "BookAuthorResponse": {
        "type": "object",
        "properties": {
          "authorID": {
            "type": "integer",
            "format": "int32"
          },
          "authorFirstName": {
            "type": "string",
            "nullable": true
          },
          "authorLastName": {
            "type": "string",
            "nullable": true
          }
        },
        "additionalProperties": false
      },
      "BookGenre": {
        "type": "object",
        "properties": {
          "bookID": {
            "type": "integer",
            "format": "int32"
          },
          "genreID": {
            "type": "integer",
            "format": "int32"
          },
          "book": {
            "$ref": "#/components/schemas/Book"
          },
          "genre": {
            "$ref": "#/components/schemas/Genre"
          }
        },
        "additionalProperties": false
      },
      "BookGenreResponse": {
        "type": "object",
        "properties": {
          "genreID": {
            "type": "integer",
            "format": "int32"
          },
          "genreName": {
            "type": "string",
            "nullable": true
          }
        },
        "additionalProperties": false
      },
      "BookRequest": {
        "type": "object",
        "properties": {
          "isbn": {
            "type": "string",
            "nullable": true
          },
          "title": {
            "type": "string",
            "nullable": true
          },
          "year": {
            "type": "integer",
            "format": "int32",
            "nullable": true
          },
          "publisherID": {
            "type": "integer",
            "format": "int32",
            "nullable": true
          },
          "languageID": {
            "type": "integer",
            "format": "int32",
            "nullable": true
          },
          "price": {
            "type": "number",
            "format": "double",
            "nullable": true
          },
          "authors": {
            "type": "array",
            "items": {
              "type": "integer",
              "format": "int32"
            },
            "nullable": true
          },
          "genres": {
            "type": "array",
            "items": {
              "type": "integer",
              "format": "int32"
            },
            "nullable": true
          }
        },
        "additionalProperties": false
      },
      "BookRequestJsonPatchDocument": {
        "type": "object",
        "properties": {
          "operations": {
            "type": "array",
            "items": {
              "$ref": "#/components/schemas/BookRequestOperation"
            },
            "nullable": true,
            "readOnly": true
          },
          "contractResolver": {
            "$ref": "#/components/schemas/IContractResolver"
          }
        },
        "additionalProperties": false
      },
      "BookRequestOperation": {
        "type": "object",
        "properties": {
          "operationType": {
            "$ref": "#/components/schemas/OperationType"
          },
          "path": {
            "type": "string",
            "nullable": true
          },
          "op": {
            "type": "string",
            "nullable": true
          },
          "from": {
            "type": "string",
            "nullable": true
          },
          "value": {
            "nullable": true
          }
        },
        "additionalProperties": false
      },
      "BookResponse": {
        "type": "object",
        "properties": {
          "bookID": {
            "type": "integer",
            "format": "int32"
          },
          "isbn": {
            "type": "string",
            "nullable": true
          },
          "title": {
            "type": "string",
            "nullable": true
          },
          "year": {
            "type": "integer",
            "format": "int32"
          },
          "publisherID": {
            "type": "integer",
            "format": "int32"
          },
          "languageID": {
            "type": "integer",
            "format": "int32"
          },
          "price": {
            "type": "number",
            "format": "double"
          },
          "languageName": {
            "type": "string",
            "nullable": true
          },
          "publisherCompanyName": {
            "type": "string",
            "nullable": true
          },
          "authors": {
            "type": "array",
            "items": {
              "$ref": "#/components/schemas/BookAuthorResponse"
            },
            "nullable": true
          },
          "genres": {
            "type": "array",
            "items": {
              "$ref": "#/components/schemas/BookGenreResponse"
            },
            "nullable": true
          }
        },
        "additionalProperties": false
      },
      "Genre": {
        "type": "object",
        "properties": {
          "genreID": {
            "type": "integer",
            "format": "int32"
          },
          "name": {
            "type": "string",
            "nullable": true
          },
          "books": {
            "type": "array",
            "items": {
              "$ref": "#/components/schemas/BookGenre"
            },
            "nullable": true
          }
        },
        "additionalProperties": false
      },
      "IContractResolver": {
        "type": "object",
        "additionalProperties": false
      },
      "Language": {
        "type": "object",
        "properties": {
          "languageID": {
            "type": "integer",
            "format": "int32"
          },
          "name": {
            "type": "string",
            "nullable": true
          },
          "books": {
            "type": "array",
            "items": {
              "$ref": "#/components/schemas/Book"
            },
            "nullable": true
          }
        },
        "additionalProperties": false
      },
      "OperationType": {
        "enum": [
          0,
          1,
          2,
          3,
          4,
          5,
          6
        ],
        "type": "integer",
        "format": "int32"
      },
      "ProblemDetails": {
        "type": "object",
        "properties": {
          "type": {
            "type": "string",
            "nullable": true
          },
          "title": {
            "type": "string",
            "nullable": true
          },
          "status": {
            "type": "integer",
            "format": "int32",
            "nullable": true
          },
          "detail": {
            "type": "string",
            "nullable": true
          },
          "instance": {
            "type": "string",
            "nullable": true
          }
        },
        "additionalProperties": { }
      },
      "Publisher": {
        "type": "object",
        "properties": {
          "publisherID": {
            "type": "integer",
            "format": "int32"
          },
          "companyName": {
            "type": "string",
            "nullable": true
          },
          "country": {
            "type": "string",
            "nullable": true
          },
          "website": {
            "type": "string",
            "nullable": true
          },
          "books": {
            "type": "array",
            "items": {
              "$ref": "#/components/schemas/Book"
            },
            "nullable": true
          }
        },
        "additionalProperties": false
      },
      "WeatherForecast": {
        "type": "object",
        "properties": {
          "date": {
            "type": "string",
            "format": "date-time"
          },
          "temperatureC": {
            "type": "integer",
            "format": "int32"
          },
          "temperatureF": {
            "type": "integer",
            "format": "int32",
            "readOnly": true
          },
          "summary": {
            "type": "string",
            "nullable": true
          }
        },
        "additionalProperties": false
      }
    }
  }
}